{
  "images" : [
    {
      "idiom" : "universal",
      "filename" : "Screen Shot 2017-08-23 at 4.54.47 PM.png",
      "scale" : "1x"
    },
    {
      "idiom" : "universal",
      "filename" : "Screen Shot 2017-08-23 at 4.54.47 PM-1.png",
      "scale" : "2x"
    },
    {
      "idiom" : "universal",
      "filename" : "Screen Shot 2017-08-23 at 4.54.47 PM-2.png",
      "scale" : "3x"
    }
  ],
  "info" : {
    "version" : 1,
    "author" : "xcode"
  }
}